\relax 
\providecommand\babel@aux[2]{}
\@nameuse{bbl@beforestart}
\citation{Powell2022-xe}
\citation{Lichtl2022-wt}
\citation{Heping2022-fn}
\citation{Schneider2019-zw}
\citation{Bugos2010TheBO}
\citation{Heping2022-fn}
\@LN@col{1}
\babel@aux{english}{}
\@writefile{toc}{\contentsline {section}{\numberline {\normalsize  \normalfont  I.}\normalsize  \normalfont  \centering  Introducción}{1}{}\protected@file@percent }
\@LN@col{2}
\@LN@col{1}
\@writefile{toc}{\contentsline {section}{\numberline {\normalsize  \normalfont  II.}\normalsize  \normalfont  \centering  Marco teórico}{2}{}\protected@file@percent }
\@writefile{toc}{\contentsline {subsection}{\numberline {\normalsize  \normalfont  \it  A.}\normalsize  \normalfont  \it  Señal de audio}{2}{}\protected@file@percent }
\@LN@col{2}
\@writefile{toc}{\contentsline {subsection}{\numberline {\normalsize  \normalfont  \it  B.}\normalsize  \normalfont  \it  Grafos}{2}{}\protected@file@percent }
\@writefile{toc}{\contentsline {subsubsection}{\numberline {\small  1.}\small  N-Árboles}{2}{}\protected@file@percent }
\@LN@col{1}
\@writefile{toc}{\contentsline {subsubsection}{\numberline {\small  2.}\small  Máquina de estados finitos (FSM)}{3}{}\protected@file@percent }
\@writefile{toc}{\contentsline {subsection}{\numberline {\normalsize  \normalfont  \it  C.}\normalsize  \normalfont  \it  Recursividad}{3}{}\protected@file@percent }
\@LN@col{2}
\@writefile{toc}{\contentsline {section}{\numberline {\normalsize  \normalfont  III.}\normalsize  \normalfont  \centering  Metodología}{3}{}\protected@file@percent }
\@writefile{toc}{\contentsline {subsection}{\numberline {\normalsize  \normalfont  \it  A.}\normalsize  \normalfont  \it  Diseño del estudio}{3}{}\protected@file@percent }
\@writefile{toc}{\contentsline {subsection}{\numberline {\normalsize  \normalfont  \it  B.}\normalsize  \normalfont  \it  Recopilación y análisis de datos}{3}{}\protected@file@percent }
\@LN@col{1}
\@writefile{toc}{\contentsline {section}{\numberline {\normalsize  \normalfont  IV.}\normalsize  \normalfont  \centering  Desarrollo e implementación}{4}{}\protected@file@percent }
\@writefile{toc}{\contentsline {subsection}{\numberline {\normalsize  \normalfont  \it  A.}\normalsize  \normalfont  \it  Distribución del servidor}{4}{}\protected@file@percent }
\@LN@col{2}
\@LN@col{1}
\@LN@col{2}
\@LN@col{1}
\@writefile{toc}{\contentsline {subsection}{\numberline {\normalsize  \normalfont  \it  B.}\normalfont  \small  \it  Cliente HTTP}{6}{}\protected@file@percent }
\@LN@col{2}
\@writefile{toc}{\contentsline {section}{\numberline {\normalsize  \normalfont  V.}\normalsize  \normalfont  \centering  Resultados y Discusión}{6}{}\protected@file@percent }
\@writefile{toc}{\contentsline {section}{\numberline {\normalsize  \normalfont  VI.}\normalsize  \normalfont  \centering  Conclusiones y Futuras Direcciones}{6}{}\protected@file@percent }
\bibstyle{plain}
\bibdata{refs}
\bibcite{Bugos2010TheBO}{1}
\bibcite{Heping2022-fn}{2}
\bibcite{Lichtl2022-wt}{3}
\bibcite{Powell2022-xe}{4}
\bibcite{Schneider2019-zw}{5}
\gdef\minted@oldcachelist{,
  default.pygstyle,
  79B0B99F9C831AEDE38ABFFD9ED6FD0CEA277455C7C8873ADFC619E8E177AD02.pygtex,
  19683766C65E6DFF7003D3D148BBD72CEA277455C7C8873ADFC619E8E177AD02.pygtex,
  43D8BE672ABFDF7EF3BBD3F4E7D683C6EA277455C7C8873ADFC619E8E177AD02.pygtex,
  79B0B99F9C831AEDE38ABFFD9ED6FD0CEA277455C7C8873ADFC619E8E177AD02.pygtex,
  64FD8ACC3E63D613322E9776B25CDC58EA277455C7C8873ADFC619E8E177AD02.pygtex,
  883FA56BD7DB854B34220A80B147E5C5EA277455C7C8873ADFC619E8E177AD02.pygtex,
  A011E87379CB0A3F802FB140BB8BF707EA277455C7C8873ADFC619E8E177AD02.pygtex,
  144F97BE7CAF0AFA1B12FA5C9A6365B9EA277455C7C8873ADFC619E8E177AD02.pygtex,
  1D57E456B804A406F9F51519171783CBEA277455C7C8873ADFC619E8E177AD02.pygtex,
  E77A989DCF1187F73B345579633073FCEA277455C7C8873ADFC619E8E177AD02.pygtex,
  F31B9A3D7292CCF946C6D06528882462EA277455C7C8873ADFC619E8E177AD02.pygtex,
  424F27663F5DFE2C6BE3FAC53FEC4D23EA277455C7C8873ADFC619E8E177AD02.pygtex,
  F87831BBF2A01A076D731816425F01CEEA277455C7C8873ADFC619E8E177AD02.pygtex,
  6FEA9CE5A2BD3A5A6DB939122BDC8D2B79E6F462ABC2DBBB5584762F9F88CD26.pygtex}
\@LN@col{1}
\@writefile{toc}{\contentsline {section}{\numberline {\normalsize  \normalfont  VII.}\normalsize  \normalfont  \centering  Referencias}{7}{}\protected@file@percent }
\@LN@col{2}
\gdef \@abspage@last{7}
