{
  "nodes": [
    {
      "id": "1",
      "color": "white",
      "Frequency": 400,
      "Duration": 0.25
    },
    {
      "id": "2",
      "color": "red",
      "Frequency": 1000,
      "Duration": 0.25
    },
    {
      "id": "3",
      "color": "blue",
      "Frequency": 400,
      "Duration": 0.25
    },
    {
      "id": "4",
      "color": "red",
      "Frequency": 400,
      "Duration": 0.25
    },
    {
      "id": "5",
      "color": "red",
      "Frequency": 1000,
      "Duration": 0.25
    },
    {
      "id": "6",
      "color": "green",
      "Frequency": 400,
      "Duration": 0.25
    }
  ],
  "links": [
    {
      "source": "1",
      "target": "5"
    },
    {
      "source": "5",
      "target": "4"
    },
    {
      "source": "2",
      "target": "3"
    },
    {
      "source": "1",
      "target": "2"
    },
    {
      "source": "2",
      "target": "6"
    }
  ]
}
